…
The first step (after installing the package) is to load the library,
along with the library dplyr.

``` r
library(aimsir17)
library(dplyr)
```

There are two datasets that can be used. The first is **observations**

``` r
observations
```

    ## # A tibble: 219,000 x 12
    ##    station  year month   day  hour date                 rain  temp  rhum
    ##    <chr>   <dbl> <dbl> <int> <int> <dttm>              <dbl> <dbl> <dbl>
    ##  1 ATHENRY  2017     1     1     0 2017-01-01 00:00:00   0     5.2    89
    ##  2 ATHENRY  2017     1     1     1 2017-01-01 01:00:00   0     4.7    89
    ##  3 ATHENRY  2017     1     1     2 2017-01-01 02:00:00   0     4.2    90
    ##  4 ATHENRY  2017     1     1     3 2017-01-01 03:00:00   0.1   3.5    87
    ##  5 ATHENRY  2017     1     1     4 2017-01-01 04:00:00   0.1   3.2    89
    ##  6 ATHENRY  2017     1     1     5 2017-01-01 05:00:00   0     2.1    91
    ##  7 ATHENRY  2017     1     1     6 2017-01-01 06:00:00   0     2      89
    ##  8 ATHENRY  2017     1     1     7 2017-01-01 07:00:00   0     1.7    89
    ##  9 ATHENRY  2017     1     1     8 2017-01-01 08:00:00   0     1      91
    ## 10 ATHENRY  2017     1     1     9 2017-01-01 09:00:00   0     1.1    91
    ## # … with 218,990 more rows, and 3 more variables: msl <dbl>, wdsp <dbl>,
    ## #   wddir <dbl>
…
