…
``` r
library(aimsir17)
library(dplyr)
library(tidyr)
library(ggplot2)
```

We can show eirgrid’s energy data from 2017, which is recorded at 15
minute intervals.

``` r
eirgrid17
```

    ## # A tibble: 35,040 x 15
    ##     year month   day  hour minute date                NIGeneration NIDemand
    ##    <dbl> <dbl> <int> <int>  <int> <dttm>                     <dbl>    <dbl>
    ##  1  2017     1     1     0      0 2017-01-01 00:00:00         889.     776.
    ##  2  2017     1     1     0     15 2017-01-01 00:15:00         922.     770.
    ##  3  2017     1     1     0     30 2017-01-01 00:30:00         908.     761.
    ##  4  2017     1     1     0     45 2017-01-01 00:45:00         919.     743.
    ##  5  2017     1     1     1      0 2017-01-01 01:00:00         882.     749.
    ##  6  2017     1     1     1     15 2017-01-01 01:15:00         849.     742.
    ##  7  2017     1     1     1     30 2017-01-01 01:30:00         843.     726.
    ##  8  2017     1     1     1     45 2017-01-01 01:45:00         809.     709.
    ##  9  2017     1     1     2      0 2017-01-01 02:00:00         797.     697.
    ## 10  2017     1     1     2     15 2017-01-01 02:15:00         755.     684.
    ## # … with 35,030 more rows, and 7 more variables: NIWindAvailability <dbl>,
    ## #   NIWindGeneration <dbl>, IEGeneration <dbl>, IEDemand <dbl>,
    ## #   IEWindAvailability <dbl>, IEWindGeneration <dbl>, SNSP <chr>
…
