…
We can link the energyu data with the weather observations to explore
the link between wind speed and power generated. First, we use dplyr to
get the hourly mean of wind power generated for March 2017

``` r
march <- eirgrid17 %>% filter(month==3) %>%
                       group_by(year,month,day,hour) %>%
                       summarise(AvrHourWind=mean(IEWindGeneration))
march
```

    ## # A tibble: 743 x 5
    ## # Groups:   year, month, day [31]
    ##     year month   day  hour AvrHourWind
    ##    <dbl> <dbl> <int> <int>       <dbl>
    ##  1  2017     3     1     0        509.
    ##  2  2017     3     1     1        395.
    ##  3  2017     3     1     2        351.
    ##  4  2017     3     1     3        282.
    ##  5  2017     3     1     4        211.
    ##  6  2017     3     1     5        168.
    ##  7  2017     3     1     6        167.
    ##  8  2017     3     1     7        145.
    ##  9  2017     3     1     8        137.
    ## 10  2017     3     1     9        117.
    ## # … with 733 more rows

Next, get the weather observations for March for two stations (Mace Head
and
Belmullet)

``` r
w <- observations %>% filter(month==3, station=="MACE HEAD" | station == "BELMULLET") %>% 
                 select(station, year, month, day, hour, wdsp)
w
```

    ## # A tibble: 1,488 x 6
    ##    station    year month   day  hour  wdsp
    ##    <chr>     <dbl> <dbl> <int> <int> <dbl>
    ##  1 BELMULLET  2017     3     1     0     9
    ##  2 BELMULLET  2017     3     1     1     9
    ##  3 BELMULLET  2017     3     1     2     8
    ##  4 BELMULLET  2017     3     1     3     9
    ##  5 BELMULLET  2017     3     1     4     8
    ##  6 BELMULLET  2017     3     1     5     8
    ##  7 BELMULLET  2017     3     1     6     7
    ##  8 BELMULLET  2017     3     1     7     5
    ##  9 BELMULLET  2017     3     1     8     6
    ## 10 BELMULLET  2017     3     1     9     3
    ## # … with 1,478 more rows

Next, join the two tables.

``` r
j <- full_join(w, march)
```

    ## Joining, by = c("year", "month", "day", "hour")

``` r
j
```

    ## # A tibble: 1,488 x 7
    ##    station    year month   day  hour  wdsp AvrHourWind
    ##    <chr>     <dbl> <dbl> <int> <int> <dbl>       <dbl>
    ##  1 BELMULLET  2017     3     1     0     9        509.
    ##  2 BELMULLET  2017     3     1     1     9        395.
    ##  3 BELMULLET  2017     3     1     2     8        351.
    ##  4 BELMULLET  2017     3     1     3     9        282.
    ##  5 BELMULLET  2017     3     1     4     8        211.
    ##  6 BELMULLET  2017     3     1     5     8        168.
    ##  7 BELMULLET  2017     3     1     6     7        167.
    ##  8 BELMULLET  2017     3     1     7     5        145.
    ##  9 BELMULLET  2017     3     1     8     6        137.
    ## 10 BELMULLET  2017     3     1     9     3        117.
    ## # … with 1,478 more rows
…
